sim/CPU_top_tb.vcd
$date
	Wed Nov 26 18:48:51 2025
$end
$version
	Icarus Verilog
$end
$timescale
	1ps
$end
$scope module CPU_top_tb $end
$var reg 1 ! clk $end
$var reg 1 " reset $end
$var integer 32 # cycle_count [31:0] $end
$var integer 32 $ errors [31:0] $end
$var integer 32 % tests [31:0] $end
$scope function decode_instruction $end
$var reg 3 & funct3 [2:0] $end
$var reg 7 ' funct7 [6:0] $end
$var reg 12 ( imm_i [11:0] $end
$var reg 32 ) inst [31:0] $end
$var reg 7 * opcode [6:0] $end
$var reg 5 + rd [4:0] $end
$var reg 5 , rs1 [4:0] $end
$var reg 5 - rs2 [4:0] $end
$upscope $end
$scope module uut $end
$var wire 1 ! clk $end
$var wire 1 " reset $end
$var wire 32 . ru_writeback_data [31:0] $end
$var wire 32 / ru_rs2 [31:0] $end
$var wire 32 0 ru_rs1 [31:0] $end
$var wire 5 1 rs2 [4:0] $end
$var wire 5 2 rs1 [4:0] $end
$var wire 5 3 rd [4:0] $end
$var wire 32 4 pc_plus4 [31:0] $end
$var wire 32 5 pc_next [31:0] $end
$var wire 32 6 pc [31:0] $end
$var wire 7 7 opcode [6:0] $end
$var wire 32 8 instruction [31:0] $end
$var wire 7 9 funct7 [6:0] $end
$var wire 3 : funct3 [2:0] $end
$var wire 32 ; data_mem_rd [31:0] $end
$var wire 32 < alu_b [31:0] $end
$var wire 32 = alu_a [31:0] $end
$var wire 1 > RUWr $end
$var wire 2 ? RUDataWrSrc [1:0] $end
$var wire 1 @ NextPCSrc $end
$var wire 32 A Imm_ext [31:0] $end
$var wire 3 B ImmSrc [2:0] $end
$var wire 1 C DMWr $end
$var wire 3 D DMCtrl [2:0] $end
$var wire 5 E BrOp [4:0] $end
$var wire 32 F ALURes [31:0] $end
$var wire 4 G ALUOp [3:0] $end
$var wire 1 H ALUBSrc $end
$var wire 1 I ALUASrc $end
$var reg 1 J PCWr $end
$scope module adder_pc4 $end
$var wire 32 K pc_out [31:0] $end
$var wire 32 L pc_in [31:0] $end
$upscope $end
$scope module alu $end
$var wire 32 M B [31:0] $end
$var wire 4 N ALUOp [3:0] $end
$var wire 32 O A [31:0] $end
$var reg 32 P ALURes [31:0] $end
$upscope $end
$scope module alub_src_mux $end
$var wire 1 H sel $end
$var wire 32 Q ru_rs2 [31:0] $end
$var wire 32 R Imm_ext [31:0] $end
$var reg 32 S b [31:0] $end
$upscope $end
$scope module alusrc_a_mux $end
$var wire 1 I sel $end
$var wire 32 T ru_rs1 [31:0] $end
$var wire 32 U pc [31:0] $end
$var reg 32 V a [31:0] $end
$upscope $end
$scope module branch_unit $end
$var wire 5 W BrOp [4:0] $end
$var wire 32 X B [31:0] $end
$var wire 32 Y A [31:0] $end
$var reg 1 @ NextPCSrc $end
$upscope $end
$scope module control $end
$var wire 3 Z Funct3 [2:0] $end
$var wire 7 [ Funct7 [6:0] $end
$var wire 7 \ OpCode [6:0] $end
$var reg 1 I ALUASrc $end
$var reg 1 H ALUBSrc $end
$var reg 4 ] ALUOp [3:0] $end
$var reg 5 ^ BrOp [4:0] $end
$var reg 3 _ DMCtrl [2:0] $end
$var reg 1 C DMWr $end
$var reg 3 ` ImmSrc [2:0] $end
$var reg 2 a RUDataWrSrc [1:0] $end
$var reg 1 > RUWr $end
$upscope $end
$scope module data_mem $end
$var wire 32 b Address [31:0] $end
$var wire 3 c DMCtrl [2:0] $end
$var wire 1 C DMWr $end
$var wire 1 ! clk $end
$var wire 32 d read_word [31:0] $end
$var wire 32 e DataWr [31:0] $end
$var parameter 32 f ADDR_WIDTH $end
$var reg 32 g DataRd [31:0] $end
$upscope $end
$scope module immgen $end
$var wire 3 h ImmSrc [2:0] $end
$var wire 32 i instruction [31:0] $end
$var reg 32 j Imm_ext [31:0] $end
$upscope $end
$scope module instr_mem $end
$var wire 32 k instruction [31:0] $end
$var wire 32 l address [31:0] $end
$upscope $end
$scope module nextpc_mux $end
$var wire 32 m branch_target [31:0] $end
$var wire 32 n pc_plus4 [31:0] $end
$var wire 1 @ sel $end
$var reg 32 o next_pc [31:0] $end
$upscope $end
$scope module pc_unit $end
$var wire 32 p PCIn [31:0] $end
$var wire 1 J PCWr $end
$var wire 1 ! clk $end
$var wire 32 q PCOut [31:0] $end
$var reg 32 r pc_reg [31:0] $end
$upscope $end
$scope module registers_unit $end
$var wire 1 > RUWr $end
$var wire 1 ! clk $end
$var wire 5 s rd [4:0] $end
$var wire 5 t rs1 [4:0] $end
$var wire 5 u rs2 [4:0] $end
$var wire 32 v ru_rs1 [31:0] $end
$var wire 32 w ru_rs2 [31:0] $end
$var wire 32 x DataWR [31:0] $end
$scope begin $unm_blk_44 $end
$var integer 32 y i [31:0] $end
$upscope $end
$upscope $end
$scope module wr_mux $end
$var wire 32 z adder_result [31:0] $end
$var wire 32 { alu_result [31:0] $end
$var wire 32 | data_mem_rd [31:0] $end
$var wire 2 } sel [1:0] $end
$var reg 32 ~ ru_wrdata [31:0] $end
$upscope $end
$upscope $end
$scope task check_register $end
$var reg 32 !" actual_value [31:0] $end
$var reg 32 "" expected_value [31:0] $end
$var reg 5 #" reg_num [4:0] $end
$upscope $end
$upscope $end
$enddefinitions $end
$comment Show the parameter values. $end
$dumpall
b1010 f
$end
#0
$dumpvars
bx #"
bx ""
bx !"
b10100 ~
b0 }
bx |
b10100 {
b100 z
b100000 y
b10100 x
bx w
b0 v
b10100 u
b0 t
b1 s
b0 r
b0 q
b100 p
b100 o
b100 n
b10100 m
b0 l
b1010000000000000010010011 k
b10100 j
b1010000000000000010010011 i
b0 h
bx g
bx e
bx d
b0 c
b10100 b
b0 a
b0 `
b0 _
b0 ^
b0 ]
b10011 \
b0 [
b0 Z
b0 Y
bx X
b0 W
b0 V
b0 U
b0 T
b10100 S
b10100 R
bx Q
b10100 P
b0 O
b0 N
b10100 M
b0 L
b100 K
1J
0I
1H
b0 G
b10100 F
b0 E
b0 D
0C
b0 B
b10100 A
0@
b0 ?
1>
b0 =
b10100 <
bx ;
b0 :
b0 9
b1010000000000000010010011 8
b10011 7
b0 6
b100 5
b100 4
b1 3
b0 2
b10100 1
b0 0
bx /
b10100 .
bx -
bx ,
bx +
bx *
bx )
bx (
bx '
bx &
b0 %
b0 $
b0 #
1"
0!
$end
#5000
b110 .
b110 x
b110 ~
b110 F
b110 P
b110 b
b110 m
b110 {
b110 <
b110 M
b110 S
b0 /
b0 Q
b0 X
b0 e
b0 w
b110 1
b110 u
b10 3
b10 s
b110 A
b110 R
b110 j
b11000000000000100010011 8
b11000000000000100010011 i
b11000000000000100010011 k
b1000 5
b1000 o
b1000 p
b1000 4
b1000 K
b1000 n
b1000 z
b100 6
b100 L
b100 U
b100 l
b100 q
b100 r
b1 #
1!
#10000
0!
#15000
b10 .
b10 x
b10 ~
b10 F
b10 P
b10 b
b10 m
b10 {
b10 <
b10 M
b10 S
b110 /
b110 Q
b110 X
b110 e
b110 w
b10 1
b10 u
b11 3
b11 s
b10 A
b10 R
b10 j
b1000000000000110010011 8
b1000000000000110010011 i
b1000000000000110010011 k
b1100 5
b1100 o
b1100 p
b1100 4
b1100 K
b1100 n
b1100 z
b1000 6
b1000 L
b1000 U
b1000 l
b1000 q
b1000 r
b10 #
1!
0"
#16000
b10 (
b0 '
b10 -
b0 ,
b0 &
b11 +
b10011 *
b1000000000000110010011 )
b10100 !"
b1 %
b10100 ""
b1 #"
#20000
0!
#25000
b11010 .
b11010 x
b11010 ~
b11010 F
b11010 P
b11010 b
b11010 m
b11010 {
b110 <
b110 M
b110 S
b10100 =
b10100 O
b10100 V
0H
1>
b10100 0
b10100 T
b10100 Y
b10100 v
b1 2
b1 t
b110011 7
b110011 \
b1000001000000110110011 8
b1000001000000110110011 i
b1000001000000110110011 k
b10000 5
b10000 o
b10000 p
b10000 4
b10000 K
b10000 n
b10000 z
b1100 6
b1100 L
b1100 U
b1100 l
b1100 q
b1100 r
b11 #
1!
#26000
b1 ,
b110011 *
b1000001000000110110011 )
b110 !"
b10 %
b110 ""
b10 #"
#30000
0!
#35000
b1110 .
b1110 x
b1110 ~
b1110 F
b1110 P
b1110 b
b1110 m
b1110 {
b1000 G
b1000 N
b1000 ]
1>
b100000 9
b100000 [
b101 3
b101 s
b10000000010 A
b10000000010 R
b10000000010 j
b1000000001000001000001010110011 8
b1000000001000001000001010110011 i
b1000000001000001000001010110011 k
b10100 5
b10100 o
b10100 p
b10100 4
b10100 K
b10100 n
b10100 z
b10000 6
b10000 L
b10000 U
b10000 l
b10000 q
b10000 r
b100 #
1!
#36000
b1 $
b10000000010 (
b100000 '
b101 +
b1000000001000001000001010110011 )
b11010 !"
b11 %
b10 ""
b11 #"
#40000
0!
#45000
b1010000000000000000000000000000 .
b1010000000000000000000000000000 x
b1010000000000000000000000000000 ~
b1010000000000000000000000000000 F
b1010000000000000000000000000000 P
b1010000000000000000000000000000 b
b1010000000000000000000000000000 m
b1010000000000000000000000000000 {
b1 G
b1 N
b1 ]
1>
b11010 <
b11010 M
b11010 S
b0 9
b0 [
b11010 /
b11010 Q
b11010 X
b11010 e
b11010 w
b11 1
b11 u
b1 :
b1 Z
b111 3
b111 s
b11 A
b11 R
b11 j
b1100001001001110110011 8
b1100001001001110110011 i
b1100001001001110110011 k
b11000 5
b11000 o
b11000 p
b11000 4
b11000 K
b11000 n
b11000 z
b10100 6
b10100 L
b10100 U
b10100 l
b10100 q
b10100 r
b101 #
1!
#46000
b10 $
b11 (
b0 '
b11 -
b1 &
b111 +
b1100001001001110110011 )
b0 !"
b100 %
b11010 ""
b100 #"
#50000
0!
#55000
b0 .
b0 x
b0 ~
b0 F
b0 P
b0 b
b0 m
b0 {
b110 =
b110 O
b110 V
b10 G
b10 N
b10 ]
1>
b0 <
b0 M
b0 S
b0 /
b0 Q
b0 X
b0 e
b0 w
b1111 1
b1111 u
b110 0
b110 T
b110 Y
b110 v
b10 2
b10 t
b10 :
b10 Z
b1000 3
b1000 s
b1111 A
b1111 R
b1111 j
b111100010010010000110011 8
b111100010010010000110011 i
b111100010010010000110011 k
b11100 5
b11100 o
b11100 p
b11100 4
b11100 K
b11100 n
b11100 z
b11000 6
b11000 L
b11000 U
b11000 l
b11000 q
b11000 r
b110 #
1!
#56000
b1111 (
b1111 -
b10 ,
b10 &
b1000 +
b111100010010010000110011 )
b1110 !"
b101 %
b1110 ""
b101 #"
#60000
0!
#65000
b11 G
b11 N
b11 ]
1>
b11 :
b11 Z
b1001 3
b1001 s
b111100010011010010110011 8
b111100010011010010110011 i
b111100010011010010110011 k
b100000 5
b100000 o
b100000 p
b100000 4
b100000 K
b100000 n
b100000 z
b11100 6
b11100 L
b11100 U
b11100 l
b11100 q
b11100 r
b111 #
1!
#66000
b11 $
b11 &
b1001 +
b111100010011010010110011 )
b0 !"
b110 %
b1010000 ""
b110 #"
#70000
0!
#75000
b10100 .
b10100 x
b10100 ~
b10100 F
b10100 P
b10100 b
b10100 m
b10100 {
b10100 =
b10100 O
b10100 V
b100 G
b100 N
b100 ]
1>
b1010 1
b1010 u
b10100 0
b10100 T
b10100 Y
b10100 v
b1 2
b1 t
b100 :
b100 Z
b1010 A
b1010 R
b1010 j
b101000001100010010110011 8
b101000001100010010110011 i
b101000001100010010110011 k
b100100 5
b100100 o
b100100 p
b100100 4
b100100 K
b100100 n
b100100 z
b100000 6
b100000 L
b100000 U
b100000 l
b100000 q
b100000 r
b1000 #
1!
#76000
b100 $
b1010 (
b1010 -
b1 ,
b100 &
b101000001100010010110011 )
b1010000000000000000000000000000 !"
b111 %
b1 ""
b111 #"
#80000
0!
#85000
b0 .
b0 x
b0 ~
b0 F
b0 P
b0 b
b0 m
b0 {
b1110 =
b1110 O
b1110 V
b101 G
b101 N
b101 ]
1>
b11010 <
b11010 M
b11010 S
b11010 /
b11010 Q
b11010 X
b11010 e
b11010 w
b11 1
b11 u
b1110 0
b1110 T
b1110 Y
b1110 v
b101 2
b101 t
b101 :
b101 Z
b1010 3
b1010 s
b11 A
b11 R
b11 j
b1100101101010100110011 8
b1100101101010100110011 i
b1100101101010100110011 k
b101000 5
b101000 o
b101000 p
b101000 4
b101000 K
b101000 n
b101000 z
b100100 6
b100100 L
b100100 U
b100100 l
b100100 q
b100100 r
b1001 #
1!
#86000
b101 $
b11 (
b11 -
b101 ,
b101 &
b1010 +
b1100101101010100110011 )
b0 !"
b1000 %
b1000 #"
#90000
0!
#95000
b11111111111111111111111111111000 .
b11111111111111111111111111111000 x
b11111111111111111111111111111000 ~
b11111111111111111111111111111000 F
b11111111111111111111111111111000 P
b11111111111111111111111111111000 b
b11111111111111111111111111111000 m
b11111111111111111111111111111000 {
b0 =
b0 O
b0 V
1H
b0 G
b0 N
b0 ]
1>
b11111111111111111111111111111000 <
b11111111111111111111111111111000 M
b11111111111111111111111111111000 S
b1111111 9
b1111111 [
bx /
bx Q
bx X
bx e
bx w
b11000 1
b11000 u
b0 0
b0 T
b0 Y
b0 v
b0 2
b0 t
b0 :
b0 Z
b1011 3
b1011 s
b10011 7
b10011 \
b11111111111111111111111111111000 A
b11111111111111111111111111111000 R
b11111111111111111111111111111000 j
b11111111100000000000010110010011 8
b11111111100000000000010110010011 i
b11111111100000000000010110010011 k
b101100 5
b101100 o
b101100 p
b101100 4
b101100 K
b101100 n
b101100 z
b101000 6
b101000 L
b101000 U
b101000 l
b101000 q
b101000 r
b1010 #
1!
#96000
b110 $
b111111111000 (
b1111111 '
b11000 -
b0 ,
b0 &
b1011 +
b10011 *
b11111111100000000000010110010011 )
b10100 !"
b1001 %
b10010 ""
b1001 #"
#100000
0!
#105000
b0 .
b0 x
b0 ~
b0 F
b0 P
b0 b
b0 m
b0 {
b1101 G
b1101 N
b1101 ]
0H
1>
b11010 <
b11010 M
b11010 S
b100000 9
b100000 [
b11010 /
b11010 Q
b11010 X
b11010 e
b11010 w
b11 1
b11 u
b1100 2
b1100 t
b101 :
b101 Z
b1100 3
b1100 s
b110011 7
b110011 \
b10000000011 A
b10000000011 R
b10000000011 j
b1000000001101100101011000110011 8
b1000000001101100101011000110011 i
b1000000001101100101011000110011 k
b110000 5
b110000 o
b110000 p
b110000 4
b110000 K
b110000 n
b110000 z
b101100 6
b101100 L
b101100 U
b101100 l
b101100 q
b101100 r
b1011 #
1!
#106000
b111 $
b10000000011 (
b100000 '
b11 -
b1100 ,
b101 &
b1100 +
b110011 *
b1000000001101100101011000110011 )
b0 !"
b1010 %
b10100 ""
b1010 #"
#110000
0!
#115000
b110 .
b110 x
b110 ~
b110 F
b110 P
b110 b
b110 m
b110 {
b110 =
b110 O
b110 V
b110 G
b110 N
b110 ]
1>
b0 <
b0 M
b0 S
b0 9
b0 [
b0 /
b0 Q
b0 X
b0 e
b0 w
b1110 1
b1110 u
b110 0
b110 T
b110 Y
b110 v
b10 2
b10 t
b110 :
b110 Z
b1101 3
b1101 s
b1110 A
b1110 R
b1110 j
b111000010110011010110011 8
b111000010110011010110011 i
b111000010110011010110011 k
b110100 5
b110100 o
b110100 p
b110100 4
b110100 K
b110100 n
b110100 z
b110000 6
b110000 L
b110000 U
b110000 l
b110000 q
b110000 r
b1100 #
1!
#116000
b1110 (
b0 '
b1110 -
b10 ,
b110 &
b1101 +
b111000010110011010110011 )
b11111111111111111111111111111000 !"
b1011 %
b11111111111111111111111111111000 ""
b1011 #"
#120000
0!
#125000
b0 .
b0 x
b0 ~
b0 F
b0 P
b0 b
b0 m
b0 {
b10100 =
b10100 O
b10100 V
b111 G
b111 N
b111 ]
1>
b1010 1
b1010 u
b10100 0
b10100 T
b10100 Y
b10100 v
b1 2
b1 t
b111 :
b111 Z
b1110 3
b1110 s
b1010 A
b1010 R
b1010 j
b101000001111011100110011 8
b101000001111011100110011 i
b101000001111011100110011 k
b111000 5
b111000 o
b111000 p
b111000 4
b111000 K
b111000 n
b111000 z
b110100 6
b110100 L
b110100 U
b110100 l
b110100 q
b110100 r
b1101 #
1!
#126000
b1000 $
b1010 (
b1010 -
b1 ,
b111 &
b1110 +
b101000001111011100110011 )
b0 !"
b1100 %
b11111111111111111111111111111110 ""
b1100 #"
#130000
0!
#135000
bx .
bx x
bx ~
bx F
bx P
bx b
bx m
bx {
bx =
bx O
bx V
b0 G
b0 N
b0 ]
0>
bx <
bx M
bx S
bx 9
bx [
bx /
bx Q
bx X
bx e
bx w
bx 1
bx u
bx 0
bx T
bx Y
bx v
bx 2
bx t
bx :
bx Z
bx 3
bx s
bx 7
bx \
bx A
bx R
bx j
bx 8
bx i
bx k
b111100 5
b111100 o
b111100 p
b111100 4
b111100 K
b111100 n
b111100 z
b111000 6
b111000 L
b111000 U
b111000 l
b111000 q
b111000 r
b1110 #
1!
#136000
b1001 $
bx (
bx '
bx -
bx ,
bx &
bx +
bx *
bx )
b110 !"
b1101 %
b10110 ""
b1101 #"
#140000
0!
#145000
b1000000 5
b1000000 o
b1000000 p
b1000000 4
b1000000 K
b1000000 n
b1000000 z
b111100 6
b111100 L
b111100 U
b111100 l
b111100 q
b111100 r
b1111 #
1!
#146000
b1010 $
b0 !"
b1110 %
b100 ""
b1110 #"
#150000
0!
#155000
b1000100 5
b1000100 o
b1000100 p
b1000100 4
b1000100 K
b1000100 n
b1000100 z
b1000000 6
b1000000 L
b1000000 U
b1000000 l
b1000000 q
b1000000 r
b10000 #
1!
#160000
0!
#165000
b1001000 5
b1001000 o
b1001000 p
b1001000 4
b1001000 K
b1001000 n
b1001000 z
b1000100 6
b1000100 L
b1000100 U
b1000100 l
b1000100 q
b1000100 r
b10001 #
1!
